AE-1.2. Modelos de Regresión Espacial
…
instituciones$cve_mun <- sprintf("%003d", instituciones$cve_mun)
instituciones$cve_mun <- paste0(instituciones$cve_ent, instituciones$cve_mun)

regiones <- read.csv("/Users/lizbeth.m.a/Downloads/Regiones.csv")
instituciones <- left_join(instituciones, regiones, by="entidad")

hosp_mun <- instituciones%>%
  group_by(cve_mun)%>%
  count(cve_mun)%>%
  arrange(desc(n))
names(hosp_mun) <- c('IDUNICO',"No_hospitales")
hosp_mun

## # A tibble: 2,450 × 2
## # Groups:   IDUNICO [2,450]
##    IDUNICO No_hospitales
##    <chr>           <int>
##  1 14039            4698
##  2 21114            4123
##  3 19039            3926
##  4 2004             3378
##  5 11020            3074
##  6 16053            2946
##  7 22014            2843
##  8 9015             2820
##  9 31050            2792
## 10 24028            2549
## # … with 2,440 more rows
…
